# setting LC_ALL to "C"
# --> Including file '/var/local/sponce/native/Brunel/Rec/Brunel/tests/options/MiniBrunel-nohive.py'
# <-- End of file '/var/local/sponce/native/Brunel/Rec/Brunel/tests/options/MiniBrunel-nohive.py'
# applying configuration of MiniBrunel
# /***** User MiniBrunel/MiniBrunel ******************************************************************
# |-CreateTimeLine       = True
# |-RunFastForwardFitter = True
# |-IntelProfile         = False
# |-EnableHive           = False  (default: True)
# |-RunRich              = True
# |-ThreadPoolSize       = 2
# |-HistogramFile        = ''
# |-EvtMax               = 100  (default: 1000)
# |-CondDBtag            = 'sim-20170301-vc-md100'
# |-CallgrindProfile     = False
# |-TimelineFile         = 'timeline.csv'
# |-DDDBtag              = 'dddb-20170301'
# |-EventSlots           = 2
# |-DisableTiming        = True
# |-InputData            = ['mdf:root://eoslhcb.cern.ch//eos/lhcb/user/c/chasse/data/upgrade_mc_FT61_1000evts.mdf']
# |                      (default: ['mdf:root://eoslhcb.cern.ch//eos/lhcb/user/c/chasse/data/upgrade_mc_FT61_1000evts.mdf'])
# |-HLT1Only             = False
# \----- (End of User MiniBrunel/MiniBrunel) ---------------------------------------------------------
# applying configuration of Brunel
# /***** User Brunel/Brunel **************************************************************************
# |-FilterTrackStates   = True
# |-PhysFilterMask      = None
# |-DatasetName         = 'future'  (default: 'Brunel')
# |-Histograms          = 'OfflineFull'
# |-DBSnapshotDirectory = '/group/online/hlt/conditions'
# |-ProductionMode      = False
# |-WriteLumi           = False
# |-SplitRawEventInput  = None
# |-PackType            = 'NONE'  (default: 'TES')
# |-DDDBtag             = 'dddb-20170301'  (default: '')
# |-WithMC              = False
# |-MainSequence        = ['ProcessPhase/Reco', 'ProcessPhase/Moni']  (default: None)
# |-OutputType          = 'NONE'  (default: 'DST')
# |-DisableTiming       = True  (default: False)
# |-DigiType            = 'Default'
# |-UseDBSnapshot       = False
# |-PartitionName       = 'LHCb'
# |-VetoHltErrorEvents  = False  (default: True)
# |-MCCheckSequence     = None
# |-InputType           = 'DIGI'  (default: 'MDF')
# |-OnlineMode          = False
# |-WriteFSR            = True
# |-SkipTracking        = False
# |-SkipEvents          = 0
# |-PrintFreq           = 1
# |-Detectors           = ['VP', 'UT', 'FT']  (default: None)
# |-EvtMax              = 100  (default: -1)
# |-Simulation          = True  (default: False)
# |-MergeGenFSR         = True
# |-Context             = 'Offline'
# |-RichSequences       = ['RICHFUTURE']  (default: ['RICHFUTURE'])
# |-RecoSequence        = ['Decoding', 'TrFast', 'TrBest', 'RICHFUTURE']  (default: None)
# |-CondDBtag           = 'sim-20170301-vc-md100'  (default: '')
# |-MCLinksSequence     = ['L0', 'Unpack', 'Tr', 'Calo']  (default: ['L0', 'Unpack', 'Tr', 'Calo'])
# |-Hlt2FilterCode      = ''
# |-Hlt1FilterCode      = ''
# |-OutputLevel         = 3
# |-InitSequence        = []  (default: None)
# |-DataType            = 'Upgrade'  (default: '2016')
# |-NoWarnings          = False
# |-SplitRawEventOutput = 4.3
# |-RecL0Only           = False
# |-RawBanksToKill      = None
# |-SpecialData         = []  (default: [])
# |-Monitors            = []  (default: [])
# \----- (End of User Brunel/Brunel) -----------------------------------------------------------------
# /***** User RecSysConf/RecSysConf ******************************************************************
# |-SkipTracking  = False
# |-DataType      = 'Upgrade'  (default: '')
# |-OutputLevel   = 3
# |-Histograms    = 'OfflineFull'
# |-Detectors     = ['VP', 'UT', 'FT']  (default: ['Velo', 'TT', 'IT', 'OT', 'Rich', 'Tr', 'Calo', 'Muon', 'L0'])
# |-OutputType    = 'NONE'  (default: '')
# |-Simulation    = True  (default: False)
# |-Context       = 'Offline'
# |-RichSequences = ['RICHFUTURE']  (default: ['RICHFUTURE'])
# |-RecoSequence  = ['Decoding', 'TrFast', 'TrBest', 'RICHFUTURE']  (default: None)
# |-SpecialData   = []  (default: [])
# |-OnlineMode    = False
# \----- (End of User RecSysConf/RecSysConf) ---------------------------------------------------------
# /***** User TrackSys/TrackSys **********************************************************************
# |-FilterBeforeFit          = True
# |-TrackingSequence         = ['TrFast', 'TrBest']  (default: [])
# |-ExpertTracking           = ['simplifiedGeometry']  (default: [])
# |-ExpertHistos             = False
# |-TrackExtraInfoAlgorithms = []  (default: [])
# |-DataType                 = 'Upgrade'  (default: '2011')
# |-WithMC                   = False
# |-TrackTypes               = ['Velo', 'Upstream', 'Forward', 'Downstream', 'Seeding', 'Match']  (default: [])
# |-OutputType               = ''
# |-Simulation               = True  (default: False)
# |-OldCloneKiller           = False
# |-ForceNewSeq              = False
# |-GlobalCuts               = {}  (default: {})
# |-ExcludedLayers           = []  (default: [])
# |-ForceOldSeq              = False
# |-SpecialData              = []  (default: [])
# |-HltMode                  = False
# |-TrackPatRecAlgorithms    = []  (default: [])
# \----- (End of User TrackSys/TrackSys) -------------------------------------------------------------
# /***** User RecMoniConf/RecMoniConf ****************************************************************
# |-SkipTracking  = False
# |-DataType      = 'Upgrade'  (default: '')
# |-Detectors     = ['VP', 'UT', 'FT']  (default: ['Velo', 'TT', 'IT', 'OT', 'Rich', 'Tr', 'Calo', 'Muon', 'L0'])
# |-Histograms    = 'OfflineFull'
# |-OutputLevel   = 3
# |-Simulation    = True  (default: False)
# |-Context       = 'Offline'
# |-MoniSequence  = ['RICHFUTURE']  (default: None)
# |-RichSequences = ['RICHFUTURE']  (default: ['RICHFUTURE'])
# |-OnlineMode    = False
# |-CheckEnabled  = False
# \----- (End of User RecMoniConf/RecMoniConf) -------------------------------------------------------
# No Writer defined for DIGI
# WARNING: Detector unknown 'RICHFUTURE'
ApplicationMgr    SUCCESS
====================================================================================================================================
                                                   Welcome to Brunel version future
                                          running on lblhcbpr3.cern.ch on Tue Jul 11 11:11:01 2017
====================================================================================================================================
ApplicationMgr       INFO Application Manager Configured successfully
ToolSvc.GitDDDB      INFO opening Git repository '/cvmfs/lhcb.cern.ch/lib/lhcb/git-conddb/DDDB.git'
ToolSvc.GitDDDB      INFO using commit 'upgrade/dddb-20170301' corresponding to d277f5e21d6fa797f89330eb6205859971e46fe9
ToolSvc.GitSIMCOND   INFO opening Git repository '/cvmfs/lhcb.cern.ch/lib/lhcb/git-conddb/SIMCOND.git'
ToolSvc.GitSIMCOND   INFO using commit 'upgrade/sim-20170301-vc-md100' corresponding to 5f8531f8a9a85d86a13c350dcbe32ef37b2dac5e
DetectorPersist...   INFO Added successfully Conversion service:XmlCnvSvc
DetectorDataSvc   SUCCESS Detector description database: git:/lhcb.xml
TransportSvc         INFO Initialize the static pointer to DetDesc::IGeometryErrorSvc
TransportSvc         INFO Recovery of geometry errors is  ENABLED
BrunelSequencer      INFO Member list: ProcessPhase/Init, GaudiSequencer/PhysicsSeq, ProcessPhase/Output, with context 'Offline'
RndmGenSvc.Engine    INFO Generator engine type:CLHEP::RanluxEngine
RndmGenSvc.Engine    INFO Current Seed:1234567 Luxury:3
RndmGenSvc           INFO Using Random engine:HepRndm::Engine<CLHEP::RanluxEngine>
Init                 INFO Member list: , with context 'Offline'
PhysicsSeq           INFO Member list: ProcessPhase/Reco, ProcessPhase/Moni, with context 'Offline'
Reco                 INFO Member list: GaudiSequencer/RecoDecodingSeq, GaudiSequencer/RecoTrFastSeq, GaudiSequencer/RecoTrBestSeq, GaudiSequencer/RecoRICHFUTURESeq, with context 'Offline'
RecoDecodingSeq      INFO Member list: RawBankToSTClusterAlg/createUTClusters, RawBankToSTLiteClusterAlg/createUTLiteClusters, FTRawBankDecoder/createFTClusters, PrStoreUTHit, PrStoreFTHit, with context 'Offline'
DeFTDetector         INFO Current FT geometry version =   61
PrStoreFTHit         INFO FtDEt = DetectorElement::/dd/Structure/LHCb/AfterMagnetRegion/T/FTGeometryInfo::GeometryInfoPlus::name=/dd/Structure/LHCb/AfterMagnetRegion/T/FT; LVolume=/dd/Geometry/AfterMagnetRegion/T/FT/lvFT; supported by /dd/Structure/LHCb/AfterMagnetRegion/T with ReplicaPath=(0,) (pvFT);

RecoTrFastSeq        INFO Member list: PrPixelTracking/PrPixelTrackingFast, PatPV3D, PrVeloUT/PrVeloUTFast, PrForwardTracking/PrForwardTrackingFast, TrackEventFitter/ForwardFitterAlgFast, with context 'Offline'
DeVP                 INFO There are 208 sensors (left: 104, right: 104)
MagneticFieldSvc     INFO Opened magnetic field file : /cvmfs/lhcb.cern.ch/lib/lhcb/DBASE/FieldMap/v5r7/cdf/field.v5r0.c1.down.cdf
MagneticFieldSvc     INFO Opened magnetic field file : /cvmfs/lhcb.cern.ch/lib/lhcb/DBASE/FieldMap/v5r7/cdf/field.v5r0.c2.down.cdf
MagneticFieldSvc     INFO Opened magnetic field file : /cvmfs/lhcb.cern.ch/lib/lhcb/DBASE/FieldMap/v5r7/cdf/field.v5r0.c3.down.cdf
MagneticFieldSvc     INFO Opened magnetic field file : /cvmfs/lhcb.cern.ch/lib/lhcb/DBASE/FieldMap/v5r7/cdf/field.v5r0.c4.down.cdf
MagneticFieldSvc     INFO Map scaled by factor 1 with polarity internally used: -1 signed relative current: -1
ToolSvc.PrUTMag...   INFO Start generation of VeloUT Bdl LUTs
ToolSvc.PrUTMag...   INFO Generation of VeloUT Bdl LUTs finished
ToolSvc.PrUTMag...   INFO Start generation of VeloUT deflection LUTs
ToolSvc.PrUTMag...   INFO Generation of VeloUT deflection LUTs finished
ToolSvc.UTClust...   INFO APE set to 0
ToolSvc.UTClust...   INFO Error Vec 0.257 0.245 0.277 0.208
ForwardFitterAl...   INFO Rec/Track/ForwardFast -> Rec/Track/ForwardFastFitted using ForwardFitterAlgFast.Fitter
RecoTrBestSeq        INFO Member list: PrForwardTracking/PrForwardTrackingBest, PrHybridSeeding/PrHybridSeedingBest, PrMatchNN/PrMatchNNBest, PrLongLivedTracking/PrLongLivedTrackingBest, GaudiSequencer/BestTrackCreatorSeq, GaudiSequencer/TrackAddExtraInfoSeq, with context 'Offline'
PrLongLivedTrac...   INFO =========================================================
PrLongLivedTrac...   INFO  XPredTol           = 200000/p + 6
PrLongLivedTrac...   INFO  TolMatchConst      = 20000/p + 1.5
PrLongLivedTrac...   INFO  TolUConst          = 20000/p + 2.5
PrLongLivedTrac...   INFO  TolVConst          = 2000/p + 0.5
PrLongLivedTrac...   INFO  MaxDeltaPConst     = 0/p + 0.25
PrLongLivedTrac...   INFO  XCorrectionConst   = 23605/p + 0.4
PrLongLivedTrac...   INFO  MaxXTracks         = 2
PrLongLivedTrac...   INFO  MaxChi2DistXTracks = 0.2
PrLongLivedTrac...   INFO  MaxXUTracks        = 2
PrLongLivedTrac...   INFO  MaxChi2XProjection = 35000/p + 4.5
PrLongLivedTrac...   INFO  OverlapTol         = 2
PrLongLivedTrac...   INFO  SeedCut            = -1
PrLongLivedTrac...   INFO  MaxChi2            = 20
PrLongLivedTrac...   INFO  MaxChi2ThreeHits   = 10
PrLongLivedTrac...   INFO  MaxWindowSize      = 10
PrLongLivedTrac...   INFO  RemoveUsed         = 0
PrLongLivedTrac...   INFO  RemoveAll          = 0
PrLongLivedTrac...   INFO  LongChi2           = 1.5
PrLongLivedTrac...   INFO  TimingMeasurements = 0
PrLongLivedTrac...   INFO =========================================================
PrLongLivedTrac...   INFO zMagnetParams 5379.88 -2143.93 366.124 119074 -0.0100333 -0.146055 1260.96
PrLongLivedTrac...   INFO momentumParams 1217.77 454.598 3353.39
BestTrackCreato...   INFO Member list: TrackBestTrackCreator, with context 'Offline'
TrackAddExtraIn...   INFO Member list: TrackAddNNGhostId, with context 'Offline'
RecoRICHFUTURESeq    INFO Member list: Rich::Future::RawBankDecoder/RichFutureDecode, Rich::Future::Rec::TrackFilter/RichTrackTypeFilter, GaudiSequencer/RichRecoSeq, with context 'Offline'
RichRecoSeq          INFO Member list: GaudiSequencer/RichPixels, GaudiSequencer/RichDownReco, GaudiSequencer/RichUpReco, GaudiSequencer/RichLongReco, Rich::Future::Rec::MergeRichPIDs/MergeRichPIDs, with context 'Offline'
RichPixels           INFO Member list: Rich::Future::SmartIDClustering/RichPixClustering, Rich::Future::Rec::PixelClusterGlobalPositions/RichPixGlobalPoints, Rich::Future::Rec::PixelClusterLocalPositions/RichPixLocalPoints, with context 'Offline'
ToolSvc.RichPar...   INFO Particle types considered = [electron, muon, pion, kaon, proton, deuteron, below_threshold]
RichDownReco         INFO Member list: GaudiSequencer/RichTracksDown, GaudiSequencer/RichPhotonsDown, Rich::Future::Rec::RecoSummary/RichRecSummaryDown, GaudiSequencer/RichPIDDown, with context 'Offline'
RichTracksDown       INFO Member list: Rich::Future::Rec::DetailedTrSegMakerFromTracks/RichTrackSegmentsDown, Rich::Future::Rec::RayTraceTrackGlobalPoints/RichTrackGloPointsDown, Rich::Future::Rec::RayTraceTrackLocalPoints/RichTrackLocPointsDown, Rich::Future::Rec::EmittedPhotonYields/RichEmittedYieldsDown, Rich::Future::Rec::TrackEmittedCherenkovAngles/RichEmittedCKAnglesDown, Rich::Future::Rec::RayTraceCherenkovCones/RichMassConesDown, Rich::Future::Rec::DetectablePhotonYields/RichDetectableYieldsDown, Rich::Future::Rec::GeomEffCKMassRings/RichGeomEffDown, Rich::Future::Rec::SelectTrackSegments/RichTkSegmentSelDown, Rich::Future::Rec::SignalPhotonYields/RichSignalYieldsDown, Rich::Future::Rec::TrackSignalCherenkovAngles/RichSignalCKAnglesDown, Rich::Future::Rec::TrackFunctionalCherenkovResolutions/RichCKResolutionsDown, with context 'Offline'
RichPhotonsDown      INFO Member list: Rich::Future::Rec::QuarticPhotonReco/RichPhotonRecoDown, Rich::Future::Rec::PhotonPredictedPixelSignal/RichPredPixelSignalDown, with context 'Offline'
RichPIDDown          INFO Member list: Rich::Future::Rec::GlobalPID::InitialisePIDInfo/RichGPIDInitDown, Rich::Future::Rec::PixelBackgroundsEstiAvHPD/RichPixBackgroundsIt0Down, Rich::Future::Rec::GlobalPID::LikelihoodMinimiser/RichGPIDLikelihoodIt0Down, Rich::Future::Rec::PixelBackgroundsEstiAvHPD/RichPixBackgroundsIt1Down, Rich::Future::Rec::GlobalPID::LikelihoodMinimiser/RichGPIDLikelihoodIt1Down, Rich::Future::Rec::GlobalPID::WriteRichPIDs/RichGPIDWriteRichPIDsDown, with context 'Offline'
RichUpReco           INFO Member list: GaudiSequencer/RichTracksUp, GaudiSequencer/RichPhotonsUp, Rich::Future::Rec::RecoSummary/RichRecSummaryUp, GaudiSequencer/RichPIDUp, with context 'Offline'
RichTracksUp         INFO Member list: Rich::Future::Rec::DetailedTrSegMakerFromTracks/RichTrackSegmentsUp, Rich::Future::Rec::RayTraceTrackGlobalPoints/RichTrackGloPointsUp, Rich::Future::Rec::RayTraceTrackLocalPoints/RichTrackLocPointsUp, Rich::Future::Rec::EmittedPhotonYields/RichEmittedYieldsUp, Rich::Future::Rec::TrackEmittedCherenkovAngles/RichEmittedCKAnglesUp, Rich::Future::Rec::RayTraceCherenkovCones/RichMassConesUp, Rich::Future::Rec::DetectablePhotonYields/RichDetectableYieldsUp, Rich::Future::Rec::GeomEffCKMassRings/RichGeomEffUp, Rich::Future::Rec::SelectTrackSegments/RichTkSegmentSelUp, Rich::Future::Rec::SignalPhotonYields/RichSignalYieldsUp, Rich::Future::Rec::TrackSignalCherenkovAngles/RichSignalCKAnglesUp, Rich::Future::Rec::TrackFunctionalCherenkovResolutions/RichCKResolutionsUp, with context 'Offline'
RichPhotonsUp        INFO Member list: Rich::Future::Rec::QuarticPhotonReco/RichPhotonRecoUp, Rich::Future::Rec::PhotonPredictedPixelSignal/RichPredPixelSignalUp, with context 'Offline'
RichPIDUp            INFO Member list: Rich::Future::Rec::GlobalPID::InitialisePIDInfo/RichGPIDInitUp, Rich::Future::Rec::PixelBackgroundsEstiAvHPD/RichPixBackgroundsIt0Up, Rich::Future::Rec::GlobalPID::LikelihoodMinimiser/RichGPIDLikelihoodIt0Up, Rich::Future::Rec::PixelBackgroundsEstiAvHPD/RichPixBackgroundsIt1Up, Rich::Future::Rec::GlobalPID::LikelihoodMinimiser/RichGPIDLikelihoodIt1Up, Rich::Future::Rec::GlobalPID::WriteRichPIDs/RichGPIDWriteRichPIDsUp, with context 'Offline'
RichLongReco         INFO Member list: GaudiSequencer/RichTracksLong, GaudiSequencer/RichPhotonsLong, Rich::Future::Rec::RecoSummary/RichRecSummaryLong, GaudiSequencer/RichPIDLong, with context 'Offline'
RichTracksLong       INFO Member list: Rich::Future::Rec::DetailedTrSegMakerFromTracks/RichTrackSegmentsLong, Rich::Future::Rec::RayTraceTrackGlobalPoints/RichTrackGloPointsLong, Rich::Future::Rec::RayTraceTrackLocalPoints/RichTrackLocPointsLong, Rich::Future::Rec::EmittedPhotonYields/RichEmittedYieldsLong, Rich::Future::Rec::TrackEmittedCherenkovAngles/RichEmittedCKAnglesLong, Rich::Future::Rec::RayTraceCherenkovCones/RichMassConesLong, Rich::Future::Rec::DetectablePhotonYields/RichDetectableYieldsLong, Rich::Future::Rec::GeomEffCKMassRings/RichGeomEffLong, Rich::Future::Rec::SelectTrackSegments/RichTkSegmentSelLong, Rich::Future::Rec::SignalPhotonYields/RichSignalYieldsLong, Rich::Future::Rec::TrackSignalCherenkovAngles/RichSignalCKAnglesLong, Rich::Future::Rec::TrackFunctionalCherenkovResolutions/RichCKResolutionsLong, with context 'Offline'
RichPhotonsLong      INFO Member list: Rich::Future::Rec::QuarticPhotonReco/RichPhotonRecoLong, Rich::Future::Rec::PhotonPredictedPixelSignal/RichPredPixelSignalLong, with context 'Offline'
RichPIDLong          INFO Member list: Rich::Future::Rec::GlobalPID::InitialisePIDInfo/RichGPIDInitLong, Rich::Future::Rec::PixelBackgroundsEstiAvHPD/RichPixBackgroundsIt0Long, Rich::Future::Rec::GlobalPID::LikelihoodMinimiser/RichGPIDLikelihoodIt0Long, Rich::Future::Rec::PixelBackgroundsEstiAvHPD/RichPixBackgroundsIt1Long, Rich::Future::Rec::GlobalPID::LikelihoodMinimiser/RichGPIDLikelihoodIt1Long, Rich::Future::Rec::GlobalPID::WriteRichPIDs/RichGPIDWriteRichPIDsLong, with context 'Offline'
Moni                 INFO Member list: GaudiSequencer/MoniRICHFUTURESeq, with context 'Offline'
MoniRICHFUTURESeq    INFO Member list: GaudiSequencer/RichMoni, with context 'Offline'
RichMoni             INFO Member list: Rich::Future::Rec::Moni::DecodingErrors/RichDecodingErrors, Rich::Future::Rec::Moni::DetectorHits/RichRecPixelQC, Rich::Future::SmartIDClustering/RichFutureMoniClustering, Rich::Future::Rec::Moni::PixelClusters/RichRecPixelClusters, GaudiSequencer/RichMoniDown, GaudiSequencer/RichMoniUp, GaudiSequencer/RichMoniLong, with context 'Offline'
RootHistSvc          INFO Writing ROOT histograms to: future-100ev-histos.root
HistogramPersis...   INFO Added successfully Conversion service:RootHistSvc
RichMoniDown         INFO Member list: Rich::Future::Rec::Moni::RecoStats/RichRecoStatsDown, Rich::Future::Rec::Moni::TrackSelEff/RiDownTrkEff, Rich::Future::Rec::Moni::PhotonCherenkovAngles/RiCKResDown, Rich::Future::Rec::Moni::PhotonCherenkovAngles/RiCKResDownTight, with context 'Offline'
RichMoniUp           INFO Member list: Rich::Future::Rec::Moni::RecoStats/RichRecoStatsUp, Rich::Future::Rec::Moni::TrackSelEff/RiUpTrkEff, Rich::Future::Rec::Moni::PhotonCherenkovAngles/RiCKResUp, Rich::Future::Rec::Moni::PhotonCherenkovAngles/RiCKResUpTight, with context 'Offline'
RichMoniLong         INFO Member list: Rich::Future::Rec::Moni::RecoStats/RichRecoStatsLong, Rich::Future::Rec::Moni::TrackSelEff/RiLongTrkEff, Rich::Future::Rec::Moni::PhotonCherenkovAngles/RiCKResLong, Rich::Future::Rec::Moni::PhotonCherenkovAngles/RiCKResLongTight, with context 'Offline'
Output               INFO Member list: , with context 'Offline'
IODataManager       ERROR Referring to existing dataset mdf:root://eoslhcb.cern.ch//eos/lhcb/user/c/chasse/data/upgrade_mc_FT61_1000evts.mdf by its physical name.
IODataManager       ERROR You may not be able to navigate back to the input file -- processing continues
EventSelector        INFO Stream:EventSelector.DataStreamTool_1 Def:DATAFILE='mdf:root://eoslhcb.cern.ch//eos/lhcb/user/c/chasse/data/upgrade_mc_FT61_1000evts.mdf' SVC='LHCb::MDFSelector' OPT='READ'
ApplicationMgr       INFO Application Manager Initialized successfully
ApplicationMgr       INFO Application Manager Started successfully
EventSelector.D...   INFO Compression:0 Checksum:1
EventPersistenc...   INFO Added successfully Conversion service:RootCnvSvc
EventPersistenc...   INFO Added successfully Conversion service:LHCb::RawDataCnvSvc
ApplicationMgr       INFO Application Manager Stopped successfully
createUTClusters     INFO Successfully processed 100 %
createUTClusters  SUCCESS Number of counters : 3
 |    Counter                                      |     #     |    sum     | mean/eff^* | rms/err^*  |     min     |     max     |
 | "# banks found"                                 |     18000 |      18000 |     1.0000 |     0.0000 |      1.0000 |      1.0000 |
 | "# valid banks"                                 |     18000 |      18000 |     1.0000 |     0.0000 |      1.0000 |      1.0000 |
 | "skipped Banks"                                 |         0 |          0 |     0.0000 |     0.0000 | 1.7977e+308 |-1.7977e+308 |
createUTLiteClu...   INFO Successfully processed 100 %
createUTLiteClu...SUCCESS Number of counters : 3
 |    Counter                                      |     #     |    sum     | mean/eff^* | rms/err^*  |     min     |     max     |
 | "# valid banks"                                 |     18000 |      18000 |     1.0000 |     0.0000 |      1.0000 |      1.0000 |
 | "# valid source ID"                             |     18000 |      18000 |     1.0000 |     0.0000 |      1.0000 |      1.0000 |
 | "skipped Banks"                                 |         0 |          0 |     0.0000 |     0.0000 | 1.7977e+308 |-1.7977e+308 |
PrVeloUTFast      SUCCESS Number of counters : 2
 |    Counter                                      |     #     |    sum     | mean/eff^* | rms/err^*  |     min     |     max     |
 | "#seeds"                                        |       100 |      24133 |     241.33 |     139.89 |      22.000 |      801.00 |
 | "#tracks"                                       |       100 |       6999 |     69.990 |     50.098 |      1.0000 |      303.00 |
ForwardFitterAl...   INFO   Fitting performance   :   100.00 %
ForwardFitterAl...SUCCESS Number of counters : 7
 |    Counter                                      |     #     |    sum     | mean/eff^* | rms/err^*  |     min     |     max     |
 | "Long.badChisq"                                 |      2740 |        466 |    0.17007 |    0.37570 |      0.0000 |      1.0000 |
 | "Long.chisqprobSum"                             |      2740 |   1043.082 |    0.38069 |    0.31491 |      0.0000 |     0.99966 |
 | "Long.flipCharge"                               |      2740 |          0 |     0.0000 |     0.0000 |      0.0000 |      0.0000 |
 | "Long.numOutliers"                              |      2740 |       1860 |    0.67883 |    0.80631 |      0.0000 |      2.0000 |
 | "nBadInput"                                     |       100 |          0 |     0.0000 |     0.0000 |      0.0000 |      0.0000 |
 | "nFitted"                                       |       100 |       2740 |     27.400 |     22.365 |      0.0000 |      142.00 |
 | "nTracks"                                       |       100 |       2740 |     27.400 |     22.365 |      0.0000 |      142.00 |
PrLongLivedTrac...SUCCESS Number of counters : 2
 |    Counter                                      |     #     |    sum     | mean/eff^* | rms/err^*  |     min     |     max     |
 | "# Downstream tracks made"                      |      9050 |       9050 |     1.0000 |     0.0000 |      1.0000 |      1.0000 |
 | "#UT hits added"                                |     35951 |      35951 |     1.0000 |     0.0000 |      1.0000 |      1.0000 |
TrackBestTrackC...   INFO   Fitting performance   :   100.00 %
TrackBestTrackC...SUCCESS Number of counters : 27
 |    Counter                                      |     #     |    sum     | mean/eff^* | rms/err^*  |     min     |     max     |
 | "BadInput"                                      |     37973 |          0 |     0.0000 |     0.0000 |      0.0000 |      0.0000 |
 | "Downstream.badChisq"                           |      3487 |       2095 |    0.60080 |    0.48973 |      0.0000 |      1.0000 |
 | "Downstream.chisqprobSum"                       |      3487 |   458.5892 |    0.13151 |    0.24237 |      0.0000 |     0.99909 |
 | "Downstream.flipCharge"                         |      3487 |          0 |     0.0000 |     0.0000 |      0.0000 |      0.0000 |
 | "Downstream.numOutliers"                        |      3487 |       4423 |     1.2684 |    0.86925 |      0.0000 |      2.0000 |
 | "FitFailed"                                     |     37973 |          0 |     0.0000 |     0.0000 |      0.0000 |      0.0000 |
 | "FittedBefore"                                  |      2519 |       2519 |     1.0000 |     0.0000 |      1.0000 |      1.0000 |
 | "Long.badChisq"                                 |      8658 |       4795 |    0.55382 |    0.49709 |      0.0000 |      1.0000 |
 | "Long.chisqprobSum"                             |      8658 |   1403.796 |    0.16214 |    0.26529 |      0.0000 |     0.99955 |
 | "Long.flipCharge"                               |      8658 |          0 |     0.0000 |     0.0000 |      0.0000 |      0.0000 |
 | "Long.numOutliers"                              |      8658 |      10267 |     1.1858 |    0.87877 |      0.0000 |      2.0000 |
 | "Ttrack.badChisq"                               |      5096 |        334 |   0.065542 |    0.24748 |      0.0000 |      1.0000 |
 | "Ttrack.chisqprobSum"                           |      5096 |    1717.24 |    0.33698 |    0.30020 |      0.0000 |     0.99991 |
 | "Ttrack.flipCharge"                             |      5096 |        455 |   0.089286 |    0.28516 |      0.0000 |      1.0000 |
 | "Ttrack.numOutliers"                            |      5096 |       2983 |    0.58536 |    0.70723 |      0.0000 |      2.0000 |
 | "Upstream.badChisq"                             |      2816 |        881 |    0.31286 |    0.46366 |      0.0000 |      1.0000 |
 | "Upstream.chisqprobSum"                         |      2816 |   857.4415 |    0.30449 |    0.33198 |      0.0000 |     0.99985 |
 | "Upstream.flipCharge"                           |      2816 |        117 |   0.041548 |    0.19955 |      0.0000 |      1.0000 |
 | "Upstream.numOutliers"                          |      2816 |       1685 |    0.59837 |    0.82416 |      0.0000 |      2.0000 |
 | "Velo.badChisq"                                 |      6292 |       1351 |    0.21472 |    0.41063 |      0.0000 |      1.0000 |
 | "Velo.chisqprobSum"                             |      6292 |   1831.119 |    0.29102 |    0.30995 |      0.0000 |      1.0000 |
 | "Velo.flipCharge"                               |      6292 |          0 |     0.0000 |     0.0000 |      0.0000 |      0.0000 |
 | "Velo.numOutliers"                              |      6292 |       3418 |    0.54323 |    0.80222 |      0.0000 |      2.0000 |
 | "VeloBackward.badChisq"                         |      9105 |        304 |   0.033388 |    0.17965 |      0.0000 |      1.0000 |
 | "VeloBackward.chisqprobSum"                     |      9105 |   4211.123 |    0.46251 |    0.31662 |      0.0000 |      1.0000 |
 | "VeloBackward.flipCharge"                       |      9105 |          0 |     0.0000 |     0.0000 |      0.0000 |      0.0000 |
 | "VeloBackward.numOutliers"                      |      9105 |       1377 |    0.15124 |    0.44025 |      0.0000 |      2.0000 |
RichDecodingErrorsSUCCESS Booked 352 Histogram(s) : 2D=1 1DProf=351
RichRecPixelQC    SUCCESS Booked 6 Histogram(s) : 1D=6
RichRecPixelClu...SUCCESS Booked 2 Histogram(s) : 1D=2
RichRecoStatsDown    INFO ===========================================================================
RichRecoStatsDown    INFO                  RichRecoStatsDown Summary : 100 events
RichRecoStatsDown    INFO ---------------------------------------------------------------------------
RichRecoStatsDown    INFO     Selected    13.44 +- 0.37 tracks/event : RICH eff  85.23 +- 0.89 %
RichRecoStatsDown    INFO ---------------------------------------------------------------------------
RichRecoStatsDown    INFO                 11.49 +- 0.34 Rich1Gas  segments/event
RichRecoStatsDown    INFO                  5.15 +- 0.23 Rich2Gas  segments/event
RichRecoStatsDown    INFO ---------------------------------------------------------------------------
RichRecoStatsDown    INFO               3285.80 +- 5.73 Rich1Gas  photons/event
RichRecoStatsDown    INFO                447.78 +- 2.12 Rich2Gas  photons/event
RichRecoStatsDown    INFO ===========================================================================
RiDownTrkEff      SUCCESS Booked 17 Histogram(s) : 1D=12 1DProf=5
RiCKResDown       SUCCESS Booked 10 Histogram(s) : 1D=10
RiCKResDown       SUCCESS List of booked 1D histograms in directory         "RICH/RiCKResDown" :-
 | ID                        |   Title                                       |    #    |     Mean   |    RMS     |  Skewness  |  Kurtosis  |
 | Rich1Gas/bottom/ckResAllP | "Rich1Gas bottom Rec-Exp Cktheta | All photon |  24230  | 0.00015899 | 0.0027158  |  -0.083988 |    -1.0324 |
 | Rich1Gas/ckResAll         | "Rich1Gas Rec-Exp Cktheta | All photons"      |  54315  | 0.00015559 | 0.0027326  |  -0.084112 |    -1.0546 |
 | Rich1Gas/phiRec           | "Rich1Gas Reconstructed Ch Phi | All photons" |  54315  |     3.0646 | 1.8208     |   0.060659 |    -1.1999 |
 | Rich1Gas/thetaRec         | "Rich1Gas Reconstructed Ch Theta | All photon |  54315  |   0.046899 | 0.0070345  |   -0.66369 |   -0.56217 |
 | Rich1Gas/top/ckResAllPerP | "Rich1Gas top Rec-Exp Cktheta | All photons"  |  30085  | 0.00015292 | 0.0027457  |  -0.084136 |    -1.0716 |
 | Rich2Gas/ASide-left/ckRes | "Rich2Gas ASide-left Rec-Exp Cktheta | All ph |  16305  | 7.3938e-05 | 0.0013545  |  -0.050784 |    -1.0295 |
 | Rich2Gas/CSide-right/ckRe | "Rich2Gas CSide-right Rec-Exp Cktheta | All p |  16436  | 6.4061e-05 | 0.0013663  |  -0.061229 |    -1.0334 |
 | Rich2Gas/ckResAll         | "Rich2Gas Rec-Exp Cktheta | All photons"      |  32741  | 6.8889e-05 | 0.0013606  |   -0.05629 |    -1.0313 |
 | Rich2Gas/phiRec           | "Rich2Gas Reconstructed Ch Phi | All photons" |  32741  |     3.1942 | 1.7989     |  -0.042755 |    -1.1514 |
 | Rich2Gas/thetaRec         | "Rich2Gas Reconstructed Ch Theta | All photon |  32741  |   0.026958 | 0.0047611  |    -1.3844 |       1.65 |
RiCKResDownTight  SUCCESS Booked 10 Histogram(s) : 1D=10
RiCKResDownTight  SUCCESS List of booked 1D histograms in directory         "RICH/RiCKResDownTight" :-
 | ID                        |   Title                                       |    #    |     Mean   |    RMS     |  Skewness  |  Kurtosis  |
 | Rich1Gas/bottom/ckResAllP | "Rich1Gas bottom Rec-Exp Cktheta | All photon |   4778  | 0.00022436 | 0.0025903  |   -0.12247 |   -0.85042 |
 | Rich1Gas/ckResAll         | "Rich1Gas Rec-Exp Cktheta | All photons"      |  10645  | 0.00017121 | 0.0026539  |  -0.086441 |    -0.9498 |
 | Rich1Gas/phiRec           | "Rich1Gas Reconstructed Ch Phi | All photons" |  10645  |     3.0357 | 1.8402     |   0.079487 |    -1.2053 |
 | Rich1Gas/thetaRec         | "Rich1Gas Reconstructed Ch Theta | All photon |  10645  |   0.046724 | 0.0072372  |   -0.65008 |   -0.67417 |
 | Rich1Gas/top/ckResAllPerP | "Rich1Gas top Rec-Exp Cktheta | All photons"  |   5867  | 0.00012817 | 0.0027036  |  -0.056839 |    -1.0215 |
 | Rich2Gas/ASide-left/ckRes | "Rich2Gas ASide-left Rec-Exp Cktheta | All ph |   1130  | 4.5084e-05 | 0.0012398  |   0.029949 |   -0.76314 |
 | Rich2Gas/CSide-right/ckRe | "Rich2Gas CSide-right Rec-Exp Cktheta | All p |   2156  | 8.8919e-05 | 0.0012652  |  -0.044209 |   -0.80619 |
 | Rich2Gas/ckResAll         | "Rich2Gas Rec-Exp Cktheta | All photons"      |   3286  | 7.3364e-05 | 0.0012564  |   -0.01793 |   -0.79282 |
 | Rich2Gas/phiRec           | "Rich2Gas Reconstructed Ch Phi | All photons" |   3286  |      3.212 | 1.8236     |  -0.047322 |    -1.2151 |
 | Rich2Gas/thetaRec         | "Rich2Gas Reconstructed Ch Theta | All photon |   3286  |   0.026525 | 0.0050295  |    -1.3205 |     1.1246 |
RichRecoStatsUp      INFO ===========================================================================
RichRecoStatsUp      INFO                  RichRecoStatsUp Summary : 100 events
RichRecoStatsUp      INFO ---------------------------------------------------------------------------
RichRecoStatsUp      INFO     Selected    16.90 +- 0.41 tracks/event : RICH eff  80.40 +- 0.87 %
RichRecoStatsUp      INFO ---------------------------------------------------------------------------
RichRecoStatsUp      INFO                 16.90 +- 0.41 Rich1Gas  segments/event
RichRecoStatsUp      INFO ---------------------------------------------------------------------------
RichRecoStatsUp      INFO               3036.00 +- 5.51 Rich1Gas  photons/event
RichRecoStatsUp      INFO ===========================================================================
RiUpTrkEff        SUCCESS Booked 17 Histogram(s) : 1D=12 1DProf=5
RiCKResUp         SUCCESS Booked 10 Histogram(s) : 1D=10
RiCKResUp         SUCCESS List of booked 1D histograms in directory         "RICH/RiCKResUp" :-
 | ID                        |   Title                                       |    #    |     Mean   |    RMS     |  Skewness  |  Kurtosis  |
 | Rich1Gas/bottom/ckResAllP | "Rich1Gas bottom Rec-Exp Cktheta | All photon |  41150  | 8.1493e-05 | 0.0027192  |  -0.028347 |    -1.0238 |
 | Rich1Gas/ckResAll         | "Rich1Gas Rec-Exp Cktheta | All photons"      |  96256  | 6.2016e-05 | 0.0027347  |  -0.020134 |    -1.0358 |
 | Rich1Gas/phiRec           | "Rich1Gas Reconstructed Ch Phi | All photons" |  96256  |     3.1226 | 1.8066     |   0.011921 |     -1.216 |
 | Rich1Gas/thetaRec         | "Rich1Gas Reconstructed Ch Theta | All photon |  96256  |   0.045664 | 0.0075669  |   -0.36206 |   -0.98606 |
 | Rich1Gas/top/ckResAllPerP | "Rich1Gas top Rec-Exp Cktheta | All photons"  |  55106  | 4.7368e-05 | 0.0027462  |  -0.013822 |    -1.0446 |
 | Rich2Gas/ASide-left/ckRes | "Rich2Gas ASide-left Rec-Exp Cktheta | All ph |    0    |          0 | 0          |          0 |          0 |
 | Rich2Gas/CSide-right/ckRe | "Rich2Gas CSide-right Rec-Exp Cktheta | All p |    0    |          0 | 0          |          0 |          0 |
 | Rich2Gas/ckResAll         | "Rich2Gas Rec-Exp Cktheta | All photons"      |    0    |          0 | 0          |          0 |          0 |
 | Rich2Gas/phiRec           | "Rich2Gas Reconstructed Ch Phi | All photons" |    0    |          0 | 0          |          0 |          0 |
 | Rich2Gas/thetaRec         | "Rich2Gas Reconstructed Ch Theta | All photon |    0    |          0 | 0          |          0 |          0 |
RiCKResUpTight    SUCCESS Booked 10 Histogram(s) : 1D=10
RiCKResUpTight    SUCCESS List of booked 1D histograms in directory         "RICH/RiCKResUpTight" :-
 | ID                        |   Title                                       |    #    |     Mean   |    RMS     |  Skewness  |  Kurtosis  |
 | Rich1Gas/bottom/ckResAllP | "Rich1Gas bottom Rec-Exp Cktheta | All photon |  15350  |-4.4398e-05 | 0.0026405  |   0.042461 |   -0.93084 |
 | Rich1Gas/ckResAll         | "Rich1Gas Rec-Exp Cktheta | All photons"      |  35165  | -2.007e-05 | 0.0026727  |   0.021699 |   -0.95806 |
 | Rich1Gas/phiRec           | "Rich1Gas Reconstructed Ch Phi | All photons" |  35165  |     3.1839 | 1.8239     |  -0.037774 |    -1.2191 |
 | Rich1Gas/thetaRec         | "Rich1Gas Reconstructed Ch Theta | All photon |  35165  |   0.045474 | 0.0075302  |   -0.35138 |    -1.0121 |
 | Rich1Gas/top/ckResAllPerP | "Rich1Gas top Rec-Exp Cktheta | All photons"  |  19815  |-4.9501e-07 | 0.0026982  |  0.0051235 |   -0.97899 |
 | Rich2Gas/ASide-left/ckRes | "Rich2Gas ASide-left Rec-Exp Cktheta | All ph |    0    |          0 | 0          |          0 |          0 |
 | Rich2Gas/CSide-right/ckRe | "Rich2Gas CSide-right Rec-Exp Cktheta | All p |    0    |          0 | 0          |          0 |          0 |
 | Rich2Gas/ckResAll         | "Rich2Gas Rec-Exp Cktheta | All photons"      |    0    |          0 | 0          |          0 |          0 |
 | Rich2Gas/phiRec           | "Rich2Gas Reconstructed Ch Phi | All photons" |    0    |          0 | 0          |          0 |          0 |
 | Rich2Gas/thetaRec         | "Rich2Gas Reconstructed Ch Theta | All photon |    0    |          0 | 0          |          0 |          0 |
RichRecoStatsLong    INFO ===========================================================================
RichRecoStatsLong    INFO                  RichRecoStatsLong Summary : 100 events
RichRecoStatsLong    INFO ---------------------------------------------------------------------------
RichRecoStatsLong    INFO     Selected    68.00 +- 0.82 tracks/event : RICH eff  95.05 +- 0.26 %
RichRecoStatsLong    INFO ---------------------------------------------------------------------------
RichRecoStatsLong    INFO                 54.26 +- 0.74 Rich1Gas  segments/event
RichRecoStatsLong    INFO                 36.42 +- 0.60 Rich2Gas  segments/event
RichRecoStatsLong    INFO ---------------------------------------------------------------------------
RichRecoStatsLong    INFO              13551.00 +-11.64 Rich1Gas  photons/event
RichRecoStatsLong    INFO               3134.33 +- 5.60 Rich2Gas  photons/event
RichRecoStatsLong    INFO ===========================================================================
RiLongTrkEff      SUCCESS Booked 17 Histogram(s) : 1D=12 1DProf=5
RiCKResLong       SUCCESS Booked 10 Histogram(s) : 1D=10
RiCKResLong       SUCCESS List of booked 1D histograms in directory         "RICH/RiCKResLong" :-
 | ID                        |   Title                                       |    #    |     Mean   |    RMS     |  Skewness  |  Kurtosis  |
 | Rich1Gas/bottom/ckResAllP | "Rich1Gas bottom Rec-Exp Cktheta | All photon |  186976 | 0.00010527 | 0.002625   |  -0.030075 |   -0.94238 |
 | Rich1Gas/ckResAll         | "Rich1Gas Rec-Exp Cktheta | All photons"      |  409597 | 9.6289e-05 | 0.002622   |  -0.028842 |   -0.93759 |
 | Rich1Gas/phiRec           | "Rich1Gas Reconstructed Ch Phi | All photons" |  409597 |     3.0976 | 1.8153     |   0.040705 |    -1.1905 |
 | Rich1Gas/thetaRec         | "Rich1Gas Reconstructed Ch Theta | All photon |  409597 |   0.046752 | 0.0069889  |   -0.70047 |   -0.54706 |
 | Rich1Gas/top/ckResAllPerP | "Rich1Gas top Rec-Exp Cktheta | All photons"  |  222621 | 8.8738e-05 | 0.0026195  |  -0.027835 |   -0.93354 |
 | Rich2Gas/ASide-left/ckRes | "Rich2Gas ASide-left Rec-Exp Cktheta | All ph |  131451 |-5.9105e-06 | 0.0013086  |  0.0049862 |   -0.89534 |
 | Rich2Gas/CSide-right/ckRe | "Rich2Gas CSide-right Rec-Exp Cktheta | All p |  132468 |-7.6613e-06 | 0.0013109  |  0.0033125 |   -0.88806 |
 | Rich2Gas/ckResAll         | "Rich2Gas Rec-Exp Cktheta | All photons"      |  263919 | -6.788e-06 | 0.0013097  |  0.0041417 |   -0.89167 |
 | Rich2Gas/phiRec           | "Rich2Gas Reconstructed Ch Phi | All photons" |  263919 |     3.1493 | 1.8123     |  -0.010313 |    -1.1967 |
 | Rich2Gas/thetaRec         | "Rich2Gas Reconstructed Ch Theta | All photon |  263919 |   0.026619 | 0.0048541  |    -1.3196 |     1.3546 |
RiCKResLongTight  SUCCESS Booked 10 Histogram(s) : 1D=10
RiCKResLongTight  SUCCESS List of booked 1D histograms in directory         "RICH/RiCKResLongTight" :-
 | ID                        |   Title                                       |    #    |     Mean   |    RMS     |  Skewness  |  Kurtosis  |
 | Rich1Gas/bottom/ckResAllP | "Rich1Gas bottom Rec-Exp Cktheta | All photon |  132810 | 5.5121e-05 | 0.002623   |  -0.022485 |   -0.94152 |
 | Rich1Gas/ckResAll         | "Rich1Gas Rec-Exp Cktheta | All photons"      |  291174 | 4.6521e-05 | 0.0026178  |  -0.021494 |   -0.93208 |
 | Rich1Gas/phiRec           | "Rich1Gas Reconstructed Ch Phi | All photons" |  291174 |     3.1009 | 1.8156     |   0.036425 |    -1.1872 |
 | Rich1Gas/thetaRec         | "Rich1Gas Reconstructed Ch Theta | All photon |  291174 |   0.046722 | 0.0069046  |   -0.69654 |   -0.51486 |
 | Rich1Gas/top/ckResAllPerP | "Rich1Gas top Rec-Exp Cktheta | All photons"  |  158364 | 3.9281e-05 | 0.0026134  |  -0.020711 |   -0.92409 |
 | Rich2Gas/ASide-left/ckRes | "Rich2Gas ASide-left Rec-Exp Cktheta | All ph |  57525  |-4.7779e-05 | 0.0012967  |   0.031463 |   -0.86889 |
 | Rich2Gas/CSide-right/ckRe | "Rich2Gas CSide-right Rec-Exp Cktheta | All p |  59398  |-5.8776e-05 | 0.001289   |   0.034544 |   -0.83312 |
 | Rich2Gas/ckResAll         | "Rich2Gas Rec-Exp Cktheta | All photons"      |  116923 |-5.3339e-05 | 0.0012928  |   0.033084 |   -0.85093 |
 | Rich2Gas/phiRec           | "Rich2Gas Reconstructed Ch Phi | All photons" |  116923 |     3.1668 | 1.8061     |  -0.026776 |    -1.1977 |
 | Rich2Gas/thetaRec         | "Rich2Gas Reconstructed Ch Theta | All photon |  116923 |   0.026152 | 0.0049702  |    -1.1829 |    0.80757 |
EventLoopMgr         INFO Histograms converted successfully according to request.
TimelineSvc          INFO Outputting timeline with 13200 entries to file  'TimelineFile':timeline.csv
TransportSvc      SUCCESS  GEOMETRY ERRORS: 'Skip'     map has the size 0

TransportSvc      SUCCESS  GEOMETRY ERRORS: 'Recover'  map has the size 0

TransportSvc      SUCCESS  GEOMETRY ERRORS: 'Codes'    map has the size 0

TransportSvc         INFO Reset the static pointer to DetDesc::IGeometyrErrorSvc
ToolSvc              INFO Removing all tools created by ToolSvc
ToolSvc.PrAddUT...SUCCESS Number of counters : 2
 |    Counter                                      |     #     |    sum     | mean/eff^* | rms/err^*  |     min     |     max     |
 | "#UT hits added"                                |      6507 |      25939 |     3.9863 |    0.48328 |      3.0000 |      8.0000 |
 | "#tracks with hits added"                       |      6507 |       6507 |     1.0000 |     0.0000 |      1.0000 |      1.0000 |
PrForwardTracki...SUCCESS Number of counters : 2
 |    Counter                                      |     #     |    sum     | mean/eff^* | rms/err^*  |     min     |     max     |
 | "#UT hits added"                                |      7141 |      28216 |     3.9513 |    0.49913 |      3.0000 |      8.0000 |
 | "#tracks with hits added"                       |      7141 |       7141 |     1.0000 |     0.0000 |      1.0000 |      1.0000 |
RichTrackSegmen...SUCCESS Number of counters : 1
 |    Counter                                      |     #     |    sum     | mean/eff^* | rms/err^*  |     min     |     max     |
 | "Number of tracks seen"                         |       101 |          0 |     0.0000 |     0.0000 |      0.0000 |      0.0000 |
RichTrackSegmen...SUCCESS Number of counters : 1
 |    Counter                                      |     #     |    sum     | mean/eff^* | rms/err^*  |     min     |     max     |
 | "Number of tracks seen"                         |       101 |          0 |     0.0000 |     0.0000 |      0.0000 |      0.0000 |
RichTrackSegmen...SUCCESS Number of counters : 1
 |    Counter                                      |     #     |    sum     | mean/eff^* | rms/err^*  |     min     |     max     |
 | "Number of tracks seen"                         |       101 |          0 |     0.0000 |     0.0000 |      0.0000 |      0.0000 |
ApplicationMgr       INFO Application Manager Finalized successfully
ApplicationMgr       INFO Application Manager Terminated successfully
